{
    "C": [
        0,
        71.5,
        143
    ],
    "D": [
        143,
        214.5,
        286
    ],
    "E": [
        286,
        357.5,
        429
    ],
    "F": [
        429,
        500.5,
        572
    ],
    "G": [
        572,
        643.5,
        715
    ],
    "A": [
        715,
        786.5,
        858
    ],
    "B": [
        858,
        929.5,
        1001
    ]
}